waveform.vcd
$date
	Fri Apr 04 18:30:12 2025
$end
$version
	Icarus Verilog
$end
$timescale
	1ps
$end
$scope module bist_tb $end
$var wire 16 ! led [15:0] $end
$var reg 1 " clk $end
$var reg 2 # mode [1:0] $end
$var reg 1 $ rst $end
$scope module dut $end
$var wire 1 " clk $end
$var wire 2 % mode [1:0] $end
$var wire 1 $ rst $end
$var wire 1 & slow_clk $end
$var wire 1 ' ring_counter_enable $end
$var wire 1 ( lfsr_enable $end
$var wire 16 ) led [15:0] $end
$var wire 1 * johnson_counter_enable $end
$scope module inst1 $end
$var wire 2 + mode [1:0] $end
$var wire 1 $ rst $end
$var wire 1 & clk $end
$var parameter 2 , idle $end
$var parameter 2 - johnson_counter $end
$var parameter 2 . lfsr $end
$var parameter 2 / ring_counter $end
$var reg 2 0 NS [1:0] $end
$var reg 2 1 PS [1:0] $end
$var reg 1 * johnson_counter_enable $end
$var reg 1 ( lfsr_enable $end
$var reg 1 ' ring_counter_enable $end
$upscope $end
$scope module inst2 $end
$var wire 1 * johnson_counter_enable $end
$var wire 1 ( lfsr_enable $end
$var wire 2 2 mode [1:0] $end
$var wire 1 ' ring_counter_enable $end
$var wire 1 $ rst $end
$var wire 1 & clk $end
$var wire 16 3 C4 [15:0] $end
$var wire 16 4 C3 [15:0] $end
$var wire 16 5 C2 [15:0] $end
$var reg 1 6 clk2 $end
$var reg 1 7 clk3 $end
$var reg 1 8 clk4 $end
$var reg 16 9 led [15:0] $end
$scope module instantiation $end
$var wire 1 6 clk $end
$var wire 1 $ rst $end
$var reg 16 : C1 [15:0] $end
$upscope $end
$scope module instantiation2 $end
$var wire 1 7 clk $end
$var wire 1 $ rst $end
$var reg 16 ; C2 [15:0] $end
$upscope $end
$scope module instantiation3 $end
$var wire 1 8 clk $end
$var wire 1 $ rst $end
$var reg 16 < C3 [15:0] $end
$upscope $end
$upscope $end
$scope module inst3 $end
$var wire 1 " clk $end
$var wire 1 $ rst $end
$var reg 26 = counter [25:0] $end
$var reg 1 & slow_clk $end
$upscope $end
$upscope $end
$upscope $end
$enddefinitions $end
$comment Show the parameter values. $end
$dumpall
b1 /
b11 .
b10 -
b0 ,
$end
#0
$dumpvars
b0 =
b1010101010101010 <
b0 ;
b1 :
b0 9
x8
x7
x6
b1 5
b0 4
b1010101010101010 3
bx 2
bx 1
bx 0
bx +
x*
b0 )
x(
x'
0&
bx %
1$
bx #
0"
b0 !
$end
#5000
1"
#10000
0"
0$
#15000
b1 =
1"
#20000
b0 0
b1 !
b1 )
b1 9
0"
b1 #
b1 %
b1 +
b1 2
#25000
b10 =
1"
#30000
0"
#35000
b11 =
1"
#40000
0"
#45000
b100 =
1"
#50000
0"
#55000
b101 =
1"
#60000
0"
#65000
b110 =
1"
#70000
0"
#75000
b111 =
1"
#80000
0"
#85000
b1000 =
1"
#90000
0"
#95000
b1001 =
1"
#100000
0"
#105000
b1010 =
1"
#110000
0"
#115000
b1011 =
1"
#120000
b0 !
b0 )
b0 9
0"
b10 #
b10 %
b10 +
b10 2
#125000
b1100 =
1"
#130000
0"
#135000
b1101 =
1"
#140000
0"
#145000
b1110 =
1"
#150000
0"
#155000
b1111 =
1"
#160000
0"
#165000
b10000 =
1"
#170000
0"
#175000
b10001 =
1"
#180000
0"
#185000
b10010 =
1"
#190000
0"
#195000
b10011 =
1"
#200000
0"
#205000
b10100 =
1"
#210000
0"
#215000
b10101 =
1"
#220000
b1010101010101010 !
b1010101010101010 )
b1010101010101010 9
0"
b11 #
b11 %
b11 +
b11 2
#225000
b10110 =
1"
#230000
0"
#235000
b10111 =
1"
#240000
0"
#245000
b11000 =
1"
#250000
0"
#255000
b11001 =
1"
#260000
0"
#265000
b11010 =
1"
#270000
0"
#275000
b11011 =
1"
#280000
0"
#285000
b11100 =
1"
#290000
0"
#295000
b11101 =
1"
#300000
0"
#305000
b11110 =
1"
#310000
0"
#315000
b11111 =
1"
#320000
b0 !
b0 )
b0 9
0"
b0 #
b0 %
b0 +
b0 2
#325000
b100000 =
1"
#330000
0"
#335000
b100001 =
1"
#340000
0"
#345000
b100010 =
1"
#350000
0"
#355000
b100011 =
1"
#360000
0"
#365000
b100100 =
1"
#370000
0"
#375000
b100101 =
1"
#380000
0"
#385000
b100110 =
1"
#390000
0"
#395000
b100111 =
1"
#400000
0"
#405000
b101000 =
1"
#410000
0"
#415000
b101001 =
1"
