waveform.vcd
$date
	Thu Apr 03 11:01:39 2025
$end
$version
	Icarus Verilog
$end
$timescale
	1ps
$end
$scope module bist_tb $end
$var wire 16 ! led [15:0] $end
$var reg 1 " clk $end
$var reg 2 # mode [1:0] $end
$var reg 1 $ rst $end
$scope module dut $end
$var wire 1 " clk $end
$var wire 2 % mode [1:0] $end
$var wire 1 $ rst $end
$var wire 1 & ring_counter_enable $end
$var wire 1 ' lfsr_enable $end
$var wire 16 ( led [15:0] $end
$var wire 1 ) johnson_counter_enable $end
$scope module inst1 $end
$var wire 1 " clk $end
$var wire 2 * mode [1:0] $end
$var wire 1 $ rst $end
$var parameter 2 + idle $end
$var parameter 2 , johnson_counter $end
$var parameter 2 - lfsr $end
$var parameter 2 . ring_counter $end
$var reg 2 / NS [1:0] $end
$var reg 2 0 PS [1:0] $end
$var reg 1 ) johnson_counter_enable $end
$var reg 1 ' lfsr_enable $end
$var reg 1 & ring_counter_enable $end
$upscope $end
$scope module inst2 $end
$var wire 1 " clk $end
$var wire 1 ) johnson_counter_enable $end
$var wire 1 ' lfsr_enable $end
$var wire 2 1 mode [1:0] $end
$var wire 1 & ring_counter_enable $end
$var wire 1 $ rst $end
$var wire 16 2 C4 [15:0] $end
$var wire 16 3 C3 [15:0] $end
$var wire 16 4 C2 [15:0] $end
$var reg 1 5 clk2 $end
$var reg 1 6 clk3 $end
$var reg 1 7 clk4 $end
$var reg 16 8 led [15:0] $end
$scope module instantiation $end
$var wire 1 5 clk $end
$var wire 1 $ rst $end
$var reg 16 9 C1 [15:0] $end
$upscope $end
$scope module instantiation2 $end
$var wire 1 6 clk $end
$var wire 1 $ rst $end
$var reg 16 : C2 [15:0] $end
$upscope $end
$scope module instantiation3 $end
$var wire 1 7 clk $end
$var wire 1 $ rst $end
$var reg 16 ; C3 [15:0] $end
$upscope $end
$upscope $end
$upscope $end
$upscope $end
$enddefinitions $end
$comment Show the parameter values. $end
$dumpall
b1 .
b11 -
b10 ,
b0 +
$end
#0
$dumpvars
b1010101010101010 ;
b0 :
b1 9
b0 8
x7
x6
x5
b1 4
b0 3
b1010101010101010 2
bx 1
bx 0
bx /
bx *
x)
b0 (
x'
x&
bx %
1$
bx #
0"
b0 !
$end
#5000
b0 /
b0 0
1"
#10000
0"
0$
#15000
1"
#20000
b1 /
b1 !
b1 (
b1 8
0"
b1 #
b1 %
b1 *
b1 1
#25000
0'
0)
1&
b1 0
1"
#30000
05
0"
#35000
b1000000000000000 !
b1000000000000000 (
b1000000000000000 8
b1000000000000000 4
b1000000000000000 9
15
1"
#40000
05
0"
#45000
b100000000000000 !
b100000000000000 (
b100000000000000 8
b100000000000000 4
b100000000000000 9
15
1"
#50000
05
0"
#55000
b10000000000000 !
b10000000000000 (
b10000000000000 8
b10000000000000 4
b10000000000000 9
15
1"
#60000
05
0"
#65000
b1000000000000 !
b1000000000000 (
b1000000000000 8
b1000000000000 4
b1000000000000 9
15
1"
#70000
05
0"
#75000
b100000000000 !
b100000000000 (
b100000000000 8
b100000000000 4
b100000000000 9
15
1"
#80000
05
0"
#85000
b10000000000 !
b10000000000 (
b10000000000 8
b10000000000 4
b10000000000 9
15
1"
#90000
05
0"
#95000
b1000000000 !
b1000000000 (
b1000000000 8
b1000000000 4
b1000000000 9
15
1"
#100000
05
0"
#105000
b100000000 !
b100000000 (
b100000000 8
b100000000 4
b100000000 9
15
1"
#110000
05
0"
#115000
b10000000 !
b10000000 (
b10000000 8
b10000000 4
b10000000 9
15
1"
#120000
05
b10 /
b0 !
b0 (
b0 8
0"
b10 #
b10 %
b10 *
b10 1
#125000
b1000000 4
b1000000 9
0&
1)
b10 0
15
1"
#130000
06
0"
#135000
b1000000000000000 !
b1000000000000000 (
b1000000000000000 8
b1000000000000000 3
b1000000000000000 :
16
1"
#140000
06
0"
#145000
b1100000000000000 !
b1100000000000000 (
b1100000000000000 8
b1100000000000000 3
b1100000000000000 :
16
1"
#150000
06
0"
#155000
b1110000000000000 !
b1110000000000000 (
b1110000000000000 8
b1110000000000000 3
b1110000000000000 :
16
1"
#160000
06
0"
#165000
b1111000000000000 !
b1111000000000000 (
b1111000000000000 8
b1111000000000000 3
b1111000000000000 :
16
1"
#170000
06
0"
#175000
b1111100000000000 !
b1111100000000000 (
b1111100000000000 8
b1111100000000000 3
b1111100000000000 :
16
1"
#180000
06
0"
#185000
b1111110000000000 !
b1111110000000000 (
b1111110000000000 8
b1111110000000000 3
b1111110000000000 :
16
1"
#190000
06
0"
#195000
b1111111000000000 !
b1111111000000000 (
b1111111000000000 8
b1111111000000000 3
b1111111000000000 :
16
1"
#200000
06
0"
#205000
b1111111100000000 !
b1111111100000000 (
b1111111100000000 8
b1111111100000000 3
b1111111100000000 :
16
1"
#210000
06
0"
#215000
b1111111110000000 !
b1111111110000000 (
b1111111110000000 8
b1111111110000000 3
b1111111110000000 :
16
1"
#220000
06
b11 /
b1010101010101010 !
b1010101010101010 (
b1010101010101010 8
0"
b11 #
b11 %
b11 *
b11 1
#225000
b1111111111000000 3
b1111111111000000 :
0)
1'
b11 0
16
1"
#230000
07
0"
#235000
b101010101010101 !
b101010101010101 (
b101010101010101 8
b101010101010101 2
b101010101010101 ;
17
1"
#240000
07
0"
#245000
b1010101010101010 !
b1010101010101010 (
b1010101010101010 8
b1010101010101010 2
b1010101010101010 ;
17
1"
#250000
07
0"
#255000
b101010101010101 !
b101010101010101 (
b101010101010101 8
b101010101010101 2
b101010101010101 ;
17
1"
#260000
07
0"
#265000
b1010101010101010 !
b1010101010101010 (
b1010101010101010 8
b1010101010101010 2
b1010101010101010 ;
17
1"
#270000
07
0"
#275000
b101010101010101 !
b101010101010101 (
b101010101010101 8
b101010101010101 2
b101010101010101 ;
17
1"
#280000
07
0"
#285000
b1010101010101010 !
b1010101010101010 (
b1010101010101010 8
b1010101010101010 2
b1010101010101010 ;
17
1"
#290000
07
0"
#295000
b101010101010101 !
b101010101010101 (
b101010101010101 8
b101010101010101 2
b101010101010101 ;
17
1"
#300000
07
0"
#305000
b1010101010101010 !
b1010101010101010 (
b1010101010101010 8
b1010101010101010 2
b1010101010101010 ;
17
1"
#310000
07
0"
#315000
b101010101010101 !
b101010101010101 (
b101010101010101 8
b101010101010101 2
b101010101010101 ;
17
1"
#320000
07
b0 /
b0 !
b0 (
b0 8
0"
b0 #
b0 %
b0 *
b0 1
#325000
b1010101010101010 2
b1010101010101010 ;
b0 0
17
1"
#330000
07
0"
#335000
b101010101010101 2
b101010101010101 ;
17
1"
#340000
07
0"
#345000
b1010101010101010 2
b1010101010101010 ;
17
1"
#350000
07
0"
#355000
b101010101010101 2
b101010101010101 ;
17
1"
#360000
07
0"
#365000
b1010101010101010 2
b1010101010101010 ;
17
1"
#370000
07
0"
#375000
b101010101010101 2
b101010101010101 ;
17
1"
#380000
07
0"
#385000
b1010101010101010 2
b1010101010101010 ;
17
1"
#390000
07
0"
#395000
b101010101010101 2
b101010101010101 ;
17
1"
#400000
07
0"
#405000
b1010101010101010 2
b1010101010101010 ;
17
1"
#410000
07
0"
#415000
b101010101010101 2
b101010101010101 ;
17
1"
